<svg width="301" height="87" viewBox="0 0 301 87" fill="none" xmlns="http://www.w3.org/2000/svg">
<path d="M24.4832 10.8877V44.4866C24.4832 49.2341 25.6302 52.3247 27.9243 53.7585C27.9562 53.9178 27.9721 54.2205 27.9721 54.6666V55.5269C27.9721 60.0832 26.8091 63.5403 24.4832 65.8981C22.1891 68.2559 18.9232 69.4348 14.6855 69.4348C10.4478 69.4348 7.08631 68.2559 4.60105 65.8981C1.63785 63.0942 0.15625 58.8565 0.15625 53.185V3.52754C3.5018 1.48835 7.32528 0.46875 11.6267 0.46875C15.96 0.46875 19.1781 1.39276 21.281 3.24077C23.4158 5.05693 24.4832 7.60592 24.4832 10.8877Z" fill="#EB0C0C"/>
<path d="M78.4421 44.9167C78.4421 47.2108 78.697 49.0588 79.2068 50.4608C79.7166 51.8627 80.6087 52.962 81.8832 53.7585C81.9151 53.9178 81.931 54.2205 81.931 54.6666V55.5269C81.931 60.0514 80.5609 63.5721 77.8207 66.0893C75.3992 68.3196 72.4041 69.4348 68.8356 69.4348C66.414 69.4348 64.1996 68.8613 62.1923 67.7142C60.1849 66.5672 58.7511 64.9104 57.8908 62.7437C56.8075 62.7437 56.2659 63.2694 56.2659 64.3209C56.2659 65.2131 56.8234 66.2167 57.9386 67.3319C55.8676 68.7338 52.7451 69.4348 48.5711 69.4348C42.6766 69.4348 37.9609 67.8417 34.4242 64.6555C30.9194 61.4374 29.1669 56.9607 29.1669 51.2255C29.1669 45.4584 31.0309 40.9977 34.7588 37.8433C38.168 35.0075 42.581 33.5897 47.9976 33.5897C49.8456 33.5897 51.6299 33.7171 53.3505 33.972C54.4975 34.1951 55.1188 34.3225 55.2144 34.3544C55.31 34.0357 55.3578 33.7649 55.3578 33.5419C55.3578 32.7135 54.6568 32.1559 53.2549 31.8691C51.8529 31.5823 50.0208 31.439 47.7586 31.439C42.9474 31.439 38.8372 32.4108 35.4279 34.3544C33.8666 31.7098 33.086 28.3642 33.086 24.3177C33.086 22.0236 33.3728 20.319 33.9463 19.2038C36.2404 18.1524 39.1558 17.2283 42.6925 16.4318C46.2292 15.6034 49.9571 15.1892 53.8762 15.1892C61.9692 15.1892 68.0868 16.9575 72.2289 20.4942C76.371 24.031 78.4421 29.0493 78.4421 35.5492V44.9167ZM53.6372 47.2586C52.299 47.2586 51.6299 47.864 51.6299 49.0748C51.6299 50.2218 52.4105 50.7953 53.9718 50.7953C55.0551 50.7953 55.8516 50.5404 56.3614 50.0306C56.8712 49.489 57.1261 48.565 57.1261 47.2586C57.1261 47.2586 55.9632 47.2586 53.6372 47.2586Z" fill="#EB0C0C"/>
<path d="M109.173 47.7366C109.556 47.7366 109.97 47.5772 110.416 47.2586C110.097 46.2072 109.938 44.5662 109.938 42.3359V18.7259C113.315 16.6867 117.378 15.6671 122.125 15.6671C124.802 15.6671 127.144 16.0335 129.151 16.7663C131.19 17.4673 132.751 18.4073 133.835 19.5862V44.4866C133.835 49.2341 134.982 52.3247 137.276 53.7585C137.308 53.9178 137.324 54.2205 137.324 54.6666V55.5269C137.324 60.1788 136.097 63.6996 133.644 66.0893C131.413 68.3196 128.339 69.4348 124.419 69.4348C121.966 69.4348 119.736 68.8772 117.728 67.762C115.753 66.6469 114.271 65.0219 113.284 62.8871C112.2 62.8871 111.659 63.4128 111.659 64.4643C111.659 65.1971 112.025 65.93 112.758 66.6628C111.738 67.4912 110.512 68.1603 109.078 68.6701C107.644 69.1799 105.525 69.4348 102.721 69.4348C99.9491 69.4348 97.2408 68.8613 94.5963 67.7142C91.3144 66.3123 88.7973 64.1616 87.0449 61.2621C84.9101 57.821 83.8427 53.4558 83.8427 48.1667V36.1705C82.2177 33.3348 81.4053 30.2123 81.4053 26.803C81.4053 25.0506 81.6283 23.2344 82.0744 21.3545C82.5204 19.4746 83.2373 17.8019 84.2251 16.3362H94.7397C98.6906 16.3362 101.781 17.2761 104.012 19.156C106.274 21.004 107.405 23.8239 107.405 27.6155V43.1006C107.405 46.1912 107.994 47.7366 109.173 47.7366Z" fill="#EB0C0C"/>
<path d="M165.522 34.3066C165.522 33.1595 165.092 32.586 164.231 32.586C163.435 32.586 163.037 33.0639 163.037 34.0198V38.9425C163.292 39.1656 163.674 39.2771 164.184 39.2771C164.693 39.2771 165.044 39.0859 165.235 38.7036C165.426 38.3212 165.522 37.6203 165.522 36.6007V34.3066ZM167.29 53.6629C165.251 53.6629 163.515 53.5196 162.081 53.2328C161.985 53.5196 161.937 53.7904 161.937 54.0453C161.937 54.7463 162.431 55.2242 163.419 55.4791C164.439 55.7021 165.729 55.8137 167.29 55.8137C172.261 55.8137 176.498 55.0808 180.003 53.6152C183.444 54.5073 186.121 56.4509 188.033 59.446C189.594 61.8994 190.375 64.7829 190.375 68.0966C190.375 73.9911 187.873 78.5793 182.871 81.8611C177.869 85.143 171.416 86.7839 163.515 86.7839C155.645 86.7839 149.559 85.3819 145.257 82.578C141.275 80.029 139.283 76.7154 139.283 72.637C139.283 71.0757 139.65 69.5782 140.382 68.1444C141.115 66.6787 141.96 65.6751 142.916 65.1334C144.509 66.4716 146.851 67.5549 149.941 68.3834C153.064 69.2118 156.266 69.626 159.548 69.626C162.83 69.626 164.932 69.4985 165.856 69.2436C166.812 68.9887 167.29 68.5427 167.29 67.9054C167.29 67.5868 167.195 67.2682 167.003 66.9496C165.41 67.3 163.419 67.4753 161.029 67.4753C154.88 67.4753 150.053 66.5991 146.548 64.8466C142.278 62.7437 140.144 59.5734 140.144 55.3357C140.144 53.6789 140.478 52.1495 141.147 50.7475C141.816 49.3137 142.804 48.2463 144.11 47.5454C142.358 46.4621 140.86 44.8211 139.618 42.6226C138.407 40.4241 137.802 37.7158 137.802 34.4977C137.802 28.3802 140.096 23.553 144.684 20.0163C149.272 16.4796 155.23 14.7112 162.559 14.7112C166.095 14.7112 169.505 15.3007 172.786 16.4796V13.134C174.666 12.4012 177.152 12.0348 180.242 12.0348C183.365 12.0348 185.739 12.5605 187.364 13.612C189.339 14.8865 190.327 17.1328 190.327 20.3509C190.327 22.1352 190.136 23.569 189.753 24.6523C189.403 25.7356 188.877 26.8667 188.176 28.0456C189.004 30.1485 189.419 32.7612 189.419 35.8838C189.419 41.5234 187.411 45.9045 183.397 49.027C179.414 52.1176 174.045 53.6629 167.29 53.6629Z" fill="#EB0C0C"/>
<path d="M243.425 44.9167C243.425 47.2108 243.68 49.0588 244.19 50.4608C244.7 51.8627 245.592 52.962 246.866 53.7585C246.898 53.9178 246.914 54.2205 246.914 54.6666V55.5269C246.914 59.9239 245.64 63.3491 243.091 65.8025C240.574 68.224 237.308 69.4348 233.293 69.4348C229.31 69.4348 226.076 68.3037 223.591 66.0415C220.692 63.4606 219.242 59.5416 219.242 54.2843C219.242 52.0539 219.337 50.0944 219.529 48.4057C219.752 46.6851 219.895 45.4584 219.959 44.7256C220.054 43.9927 220.15 43.3077 220.245 42.6704C220.341 42.0332 220.389 41.0933 220.389 39.8506C220.389 38.608 220.214 37.7158 219.863 37.1742C219.545 36.6325 219.082 36.3617 218.477 36.3617C217.904 36.3617 217.394 36.4891 216.948 36.744L217.569 44.5344C216.996 47.7525 216.709 51.1618 216.709 54.7622C216.709 58.3626 217.521 61.6445 219.146 64.6077C216.024 67.8258 211.643 69.4348 206.003 69.4348C202.785 69.4348 199.997 68.5905 197.639 66.9018C194.899 64.99 193.529 62.457 193.529 59.3026V3.52754C195.058 2.63539 196.89 1.90256 199.025 1.32903C201.192 0.755511 203.374 0.46875 205.573 0.46875C209.237 0.46875 212.264 1.18565 214.654 2.61946C217.362 4.30816 218.716 6.7297 218.716 9.88408V14.4245C215.944 14.5838 213.284 15.3803 210.735 16.8141C208.536 18.0886 207.437 19.2516 207.437 20.3031C207.437 20.6536 207.564 20.9722 207.819 21.2589C208.074 21.5138 208.377 21.6731 208.727 21.7369C210.065 20.1756 211.945 18.8693 214.367 17.8178C216.82 16.7663 219.72 16.2406 223.065 16.2406C226.411 16.2406 229.422 16.7504 232.098 17.77C235.476 19.0445 238.136 20.9881 240.08 23.6008C242.406 26.7871 243.569 30.7858 243.569 35.597L243.425 44.9167Z" fill="#EB0C0C"/>
<path d="M271.385 44.4388V45.538C271.385 46.0478 271.4 46.4143 271.432 46.6373C271.751 46.7966 272.101 46.8763 272.484 46.8763C273.408 46.8763 273.87 46.1753 273.87 44.7734C273.87 40.0896 274.125 35.2306 274.635 30.1963C275.176 25.1302 275.75 21.2271 276.355 18.4869C278.936 16.607 282.377 15.6671 286.678 15.6671C290.98 15.6671 294.294 16.5114 296.62 18.2001C298.977 19.857 300.156 21.8643 300.156 24.2221C300.156 25.2099 299.567 29.2882 298.388 36.4573C297.082 43.7538 295.409 51.4326 293.37 59.4938C292.955 61.1187 292.207 63.3969 291.123 66.3282C290.072 69.2596 288.941 71.697 287.73 73.6406C283.938 79.6626 279.255 83.3905 273.679 84.8243C271.066 85.4934 268.437 85.828 265.793 85.828C260.663 85.828 256.696 84.5535 253.892 82.0045C251.311 79.7104 250.021 76.8587 250.021 73.4495C250.021 70.0721 251.025 66.8858 253.032 63.8908C253.51 63.7633 254.386 63.6996 255.66 63.6996C256.935 63.6996 258.528 63.8589 260.44 64.1775C265.729 65.1653 268.421 65.6591 268.517 65.6591C268.74 65.691 268.979 65.7388 269.234 65.8025C269.521 65.8344 269.887 65.8503 270.333 65.8503C270.779 65.8503 271.162 65.7228 271.48 65.468C271.799 65.2131 271.958 64.7033 271.958 63.9386L260.679 61.7878C257.907 60.6408 255.501 58.2352 253.462 54.571C250.945 50.0466 249.24 43.9131 248.348 36.1705C246.245 33.4304 245.194 30.1485 245.194 26.325C245.194 22.5016 246.15 19.172 248.061 16.3362H260.344C264.454 16.3362 267.529 17.5151 269.568 19.8729C271.066 21.6254 272.022 24.1903 272.436 27.5677C271.735 33.1117 271.385 38.7354 271.385 44.4388Z" fill="#EB0C0C"/>
</svg>
